PCBNEW-LibModule-V1  19/10/2012 14:17:25
# encoding utf-8
$INDEX
Cachatuga
$EndINDEX
$MODULE Cachatuga
Po 0 0 0 15 508144CA 5081347F ~~
Li Cachatuga
Sc 5081347F
AR /4E33CBF2/4E33C46E
Op 0 0 0
T0 0 -750 600 600 0 120 N V 21 N "HC05"
T1 0 500 600 600 0 120 N V 21 N "HC05"
DS 0 -8622 5114 -8622 150 21
DS 5118 -10591 0 -10587 150 21
DS 0 -10587 0 0 150 21
DS 0 0 5110 8 150 21
DS 5110 8 5118 -10591 150 21
T2 2441 -9540 157 118 0 30 N I 21 I "Antenna Area: no traces, GND planes, parts here"
$PAD
Sh "13" R 354 591 0 0 900
Dr 0 0 0
At SMD N 00888000
Ne 0 ""
Po -197 -705
$EndPAD
$PAD
Sh "12" R 354 591 0 0 900
Dr 0 0 0
At SMD N 00888000
Ne 0 ""
Po -197 -1295
$EndPAD
$PAD
Sh "11" R 354 591 0 0 900
Dr 0 0 0
At SMD N 00888000
Ne 0 ""
Po -197 -1886
$EndPAD
$PAD
Sh "10" R 354 591 0 0 900
Dr 0 0 0
At SMD N 00888000
Ne 0 ""
Po -197 -2476
$EndPAD
$PAD
Sh "9" R 354 591 0 0 900
Dr 0 0 0
At SMD N 00888000
Ne 0 ""
Po -197 -3067
$EndPAD
$PAD
Sh "8" R 354 591 0 0 900
Dr 0 0 0
At SMD N 00888000
Ne 0 ""
Po -197 -3657
$EndPAD
$PAD
Sh "7" R 354 591 0 0 900
Dr 0 0 0
At SMD N 00888000
Ne 0 ""
Po -197 -4248
$EndPAD
$PAD
Sh "6" R 354 591 0 0 900
Dr 0 0 0
At SMD N 00888000
Ne 0 ""
Po -197 -4839
$EndPAD
$PAD
Sh "5" R 354 591 0 0 900
Dr 0 0 0
At SMD N 00888000
Ne 0 ""
Po -197 -5429
$EndPAD
$PAD
Sh "3" R 354 591 0 0 900
Dr 0 0 0
At SMD N 00888000
Ne 0 ""
Po -197 -6610
$EndPAD
$PAD
Sh "4" R 354 591 0 0 900
Dr 0 0 0
At SMD N 00888000
Ne 0 ""
Po -197 -6020
$EndPAD
$PAD
Sh "2" R 354 591 0 0 900
Dr 0 0 0
At SMD N 00888000
Ne 0 ""
Po -197 -7201
$EndPAD
$PAD
Sh "1" R 354 591 0 0 900
Dr 0 0 0
At SMD N 00888000
Ne 0 ""
Po -197 -7791
$EndPAD
$PAD
Sh "23" R 354 591 0 0 900
Dr 0 0 0
At SMD N 00888000
Ne 0 ""
Po 5315 -1295
$EndPAD
$PAD
Sh "22" R 354 591 0 0 900
Dr 0 0 0
At SMD N 00888000
Ne 0 ""
Po 5315 -705
$EndPAD
$PAD
Sh "24" R 354 591 0 0 900
Dr 0 0 0
At SMD N 00888000
Ne 0 ""
Po 5315 -1886
$EndPAD
$PAD
Sh "25" R 354 591 0 0 900
Dr 0 0 0
At SMD N 00888000
Ne 0 ""
Po 5315 -2476
$EndPAD
$PAD
Sh "26" R 354 591 0 0 900
Dr 0 0 0
At SMD N 00888000
Ne 0 ""
Po 5315 -3067
$EndPAD
$PAD
Sh "27" R 354 591 0 0 900
Dr 0 0 0
At SMD N 00888000
Ne 0 ""
Po 5315 -3657
$EndPAD
$PAD
Sh "28" R 354 591 0 0 900
Dr 0 0 0
At SMD N 00888000
Ne 0 ""
Po 5315 -4248
$EndPAD
$PAD
Sh "29" R 354 591 0 0 900
Dr 0 0 0
At SMD N 00888000
Ne 0 ""
Po 5315 -4839
$EndPAD
$PAD
Sh "30" R 354 591 0 0 900
Dr 0 0 0
At SMD N 00888000
Ne 0 ""
Po 5315 -5429
$EndPAD
$PAD
Sh "31" R 354 591 0 0 900
Dr 0 0 0
At SMD N 00888000
Ne 0 ""
Po 5315 -6020
$EndPAD
$PAD
Sh "32" R 354 591 0 0 900
Dr 0 0 0
At SMD N 00888000
Ne 0 ""
Po 5315 -6610
$EndPAD
$PAD
Sh "33" R 354 591 0 0 900
Dr 0 0 0
At SMD N 00888000
Ne 0 ""
Po 5315 -7201
$EndPAD
$PAD
Sh "34" R 354 591 0 0 900
Dr 0 0 0
At SMD N 00888000
Ne 0 ""
Po 5315 -7791
$EndPAD
$PAD
Sh "14" R 591 354 0 0 900
Dr 0 0 0
At SMD N 00888000
Ne 0 ""
Po 500 197
$EndPAD
$PAD
Sh "15" R 591 354 0 0 900
Dr 0 0 0
At SMD N 00888000
Ne 0 ""
Po 1091 197
$EndPAD
$PAD
Sh "16" R 591 354 0 0 900
Dr 0 0 0
At SMD N 00888000
Ne 0 ""
Po 1681 197
$EndPAD
$PAD
Sh "17" R 591 354 0 0 900
Dr 0 0 0
At SMD N 00888000
Ne 0 ""
Po 2272 197
$EndPAD
$PAD
Sh "18" R 591 354 0 0 900
Dr 0 0 0
At SMD N 00888000
Ne 0 ""
Po 2862 197
$EndPAD
$PAD
Sh "19" R 591 354 0 0 900
Dr 0 0 0
At SMD N 00888000
Ne 0 ""
Po 3453 197
$EndPAD
$PAD
Sh "20" R 591 354 0 0 900
Dr 0 0 0
At SMD N 00888000
Ne 0 ""
Po 4043 197
$EndPAD
$PAD
Sh "21" R 591 354 0 0 900
Dr 0 0 0
At SMD N 00888000
Ne 0 ""
Po 4634 197
$EndPAD
$EndMODULE  Cachatuga
$EndLIBRARY
