PCBNEW-LibModule-V1  Sun 08 May 2011 17:55:26 CEST
# encoding utf-8
$INDEX
NULL
OSHW-logo
$EndINDEX
$INDEX
CON2X3A
CON1x4-A
$EndINDEX
$MODULE CON2X3A
Po 0 0 0 15 4DC55FFF 00000000 ~~
Li CON2X3A
Cd Conector acodado de 2 x 3 pines
Kw conector
Sc 00000000
AR CON2X5A
Op 0 0 0
T0 1000 1000 400 350 0 50 N V 21 N "CON2X3A"
T1 -1250 -2000 200 200 0 30 N V 21 N "VAL**"
DS -500 -1750 4000 -1750 50 21
DS -2000 -5250 4000 -5250 50 21
DS 4000 -1750 4000 -5250 50 21
DS -500 500 2500 500 50 21
DS 2500 500 2500 -1750 50 21
DS -2000 -1750 -2000 -5250 50 21
DS 0 -5250 0 -2750 50 21
DS 0 -2750 2000 -2750 50 21
DS 2000 -2750 2000 -5250 50 21
DS -1000 -4250 -500 -5250 50 21
DS -1500 -5250 -1000 -4250 50 21
DS -500 -1750 -2000 -1750 50 21
DS -500 -1500 -500 -1750 50 21
DS -500 500 -500 -1500 50 21
$PAD
Sh "1" R 600 600 0 0 0
Dr 400 0 0
At STD N 00E0FFFF
Ne 0 ""
Po 0 0
$EndPAD
$PAD
Sh "2" C 600 600 0 0 0
Dr 400 0 0
At STD N 00E0FFFF
Ne 0 ""
Po 1000 0
$EndPAD
$PAD
Sh "3" C 600 600 0 0 0
Dr 400 0 0
At STD N 00E0FFFF
Ne 0 ""
Po 2000 0
$EndPAD
$PAD
Sh "6" C 600 600 0 0 0
Dr 400 0 0
At STD N 00E0FFFF
Ne 0 ""
Po 0 -1000
$EndPAD
$PAD
Sh "5" C 600 600 0 0 0
Dr 400 0 0
At STD N 00E0FFFF
Ne 0 ""
Po 1000 -1000
$EndPAD
$PAD
Sh "4" C 600 600 0 0 0
Dr 400 0 0
At STD N 00E0FFFF
Ne 0 ""
Po 2000 -1000
$EndPAD
$EndMODULE  CON2X3A
$MODULE CON1x4-A
Po 0 0 0 15 4DC5619B 00000000 ~~
Li CON1x4-A
Sc 00000000
AR
Op 0 0 0
T0 1750 1000 400 500 0 35 N V 21 N "CON1x4-A"
T1 0 500 100 100 0 20 N I 21 N "CON1x4-A"
DS 1000 -3500 1500 -3500 50 21
DS 1500 -3500 1500 -2500 50 21
DS 1000 -2500 1000 -3500 50 21
DS 1000 -3000 500 -3000 100 21
DS 1500 -2000 3750 -2000 100 21
DS 1500 -2500 1500 500 50 21
DS 1000 500 1000 -2500 50 21
DS 3750 -50 3750 0 50 21
DS 1500 -50 3750 -50 50 21
DS 500 -50 500 0 50 21
DS 500 -50 1000 -50 50 21
DS 3750 -1050 3750 -1000 50 21
DS 1500 -1050 3750 -1050 50 21
DS 500 -1050 500 -1000 50 21
DS 500 -1050 1000 -1050 50 21
DS 500 -2050 500 -2000 50 21
DS 500 -2050 1000 -2050 50 21
DS 1500 0 3750 0 50 21
DS 1500 -1000 3750 -1000 50 21
DS 1500 -3000 3750 -3000 100 21
DS 1000 -500 1500 -500 50 21
DS 1000 -1500 1500 -1500 50 21
DS 1000 -2500 1500 -2500 50 21
DS 500 0 1000 0 50 21
DS 500 -1000 1000 -1000 50 21
DS 500 -2000 1000 -2000 50 21
DS 1000 500 1500 500 50 21
$PAD
Sh "1" R 600 600 0 0 0
Dr 400 0 0
At STD N 00E0FFFF
Ne 0 ""
Po 0 0
$EndPAD
$PAD
Sh "2" C 600 600 0 0 0
Dr 400 0 0
At STD N 00E0FFFF
Ne 0 ""
Po 0 -1000
$EndPAD
$PAD
Sh "3" C 600 600 0 0 0
Dr 400 0 0
At STD N 00E0FFFF
Ne 0 ""
Po 0 -2000
$EndPAD
$PAD
Sh "4" C 600 600 0 0 0
Dr 400 0 0
At STD N 00E0FFFF
Ne 0 ""
Po 0 -3000
$EndPAD
$SHAPE3D
Na "pins_array_03_90.wrl"
Sc 1.000000 1.000000 1.000000
Of 0.150000 0.100000 0.000000
Ro 0.000000 0.000000 90.000000
$EndSHAPE3D
$EndMODULE  CON1x4-A
$MODULE NULL
Po 0 0 0 15 4DC57E5C 00000000 ~~
Li NULL
Sc 00000000
AR
Op 0 0 0
T0 0 1000 600 600 0 120 N V 21 N "NULL"
T1 0 0 600 600 0 120 N V 21 N "VAL**"
$EndMODULE  NULL
$MODULE OSHW-logo
Po 0 0 0 15 4DC6BCDB 00000000 ~~
Li OSHW-logo
Sc 00000000
AR 
Op 0 0 0
T0 0 1700 600 600 0 120 N I 21 N "G***"
T1 0 -1700 600 600 0 120 N I 21 N "OSHW-logo"
DP 0 0 0 0 114 1 15
Dl -785 1233
Dl -740 1213
Dl -628 1146
Dl -599 1128
Dl -492 1081
Dl -407 1097
Dl -373 1112
Dl -315 1126
Dl -308 1108
Dl -266 999
Dl -204 825
Dl -101 533
Dl -179 482
Dl -291 357
Dl -326 177
Dl -264 2
Dl -111 -120
Dl -82 -131
Dl 106 -139
Dl 259 -52
Dl 351 94
Dl 361 269
Dl 266 438
Dl 207 500
Dl 166 553
Dl 170 566
Dl 206 668
Dl 269 834
Dl 279 859
Dl 365 1040
Dl 441 1104
Dl 522 1064
Dl 564 1053
Dl 683 1114
Dl 797 1181
Dl 891 1181
Dl 985 1083
Dl 1075 966
Dl 985 830
Dl 941 761
Dl 913 671
Dl 942 556
Dl 966 490
Dl 1025 419
Dl 1152 381
Dl 1252 357
Dl 1311 311
Dl 1327 202
Dl 1325 77
Dl 1268 6
Dl 1118 -42
Dl 1075 -54
Dl 968 -106
Dl 908 -208
Dl 886 -268
Dl 883 -351
Dl 950 -453
Dl 964 -472
Dl 1019 -569
Dl 1001 -644
Dl 980 -676
Dl 879 -777
Dl 823 -814
Dl 759 -809
Dl 645 -740
Dl 494 -642
Dl 363 -705
Dl 271 -761
Dl 233 -848
Dl 231 -876
Dl 200 -1014
Dl 192 -1034
Dl 139 -1088
Dl 16 -1100
Dl -18 -1099
Dl -121 -1081
Dl -167 -1014
Dl -178 -980
Dl -200 -831
Dl -203 -788
Dl -241 -733
Dl -270 -727
Dl -377 -683
Dl -435 -658
Dl -507 -665
Dl -622 -737
Dl -772 -840
Dl -886 -730
Dl -957 -653
Dl -1000 -588
Dl -984 -549
Dl -916 -447
Dl -866 -376
Dl -839 -280
Dl -888 -156
Dl -913 -110
Dl -995 -20
Dl -1125 0
Dl -1205 10
Dl -1268 89
Dl -1287 161
Dl -1269 306
Dl -1180 383
Dl -1025 415
Dl -980 437
Dl -883 576
Dl -815 722
Dl -908 849
Dl -965 935
Dl -1000 1007
Dl -981 1043
Dl -902 1135
Dl -842 1192
Dl -785 1233
$EndMODULE  OSHW-logo
$EndLIBRARY
